jpeg_decoder_verilog/sim/entropy_test.vcd
$date
	Sat Jan 03 14:45:42 2026
$end
$version
	Icarus Verilog
$end
$timescale
	1ps
$end
$scope module tb_entropy_decoder $end
$var wire 1 ! is_reading_bits $end
$var wire 1 " huff_enable $end
$var wire 12 # coeff_value [11:0] $end
$var wire 1 $ coeff_valid $end
$var wire 6 % coeff_index [5:0] $end
$var wire 1 & block_done $end
$var reg 1 ' bit_in $end
$var reg 1 ( bit_valid $end
$var reg 1 ) clk $end
$var reg 1 * rst_n $end
$var reg 8 + symbol_in [7:0] $end
$var reg 1 , symbol_valid $end
$scope module uut $end
$var wire 1 ' bit_in $end
$var wire 1 ( bit_valid $end
$var wire 1 ) clk $end
$var wire 16 - current_amp_comb [15:0] $end
$var wire 1 * rst_n $end
$var wire 8 . symbol_in [7:0] $end
$var wire 1 , symbol_valid $end
$var wire 1 ! is_reading_bits $end
$var parameter 2 / S_IDLE $end
$var parameter 2 0 S_OUTPUT_RUN $end
$var parameter 2 1 S_PAD_ZERO $end
$var parameter 2 2 S_READ_BITS $end
$var reg 16 3 amp_bits_reg [15:0] $end
$var reg 5 4 bits_read_cnt [4:0] $end
$var reg 1 & block_done $end
$var reg 6 5 coeff_index [5:0] $end
$var reg 1 $ coeff_valid $end
$var reg 12 6 coeff_value [11:0] $end
$var reg 12 7 dc_prev [11:0] $end
$var reg 1 " huff_enable $end
$var reg 6 8 idx [5:0] $end
$var reg 5 9 run_cnt [4:0] $end
$var reg 4 : size_reg [3:0] $end
$var reg 2 ; state [1:0] $end
$scope function decode_vli $end
$var reg 16 < bits [15:0] $end
$var reg 16 = mask [15:0] $end
$var reg 4 > sz [3:0] $end
$upscope $end
$upscope $end
$scope task send_symbol $end
$var reg 4 ? run [3:0] $end
$var reg 4 @ size [3:0] $end
$upscope $end
$scope task send_vli_bits $end
$var reg 16 A bits [15:0] $end
$var reg 4 B count [3:0] $end
$var integer 32 C k [31:0] $end
$upscope $end
$upscope $end
$enddefinitions $end
$comment Show the parameter values. $end
$dumpall
b10 2
b11 1
b1 0
b0 /
$end
#0
$dumpvars
bx C
bx B
bx A
bx @
bx ?
bx >
bx =
bx <
b0 ;
b0 :
b0 9
b0 8
b0 7
b0 6
b0 5
b0 4
b0 3
b0 .
b0 -
0,
b0 +
0*
0)
0(
0'
0&
b0 %
0$
b0 #
1"
0!
$end
#10000
1)
#20000
0)
#30000
1)
1*
#40000
0)
#50000
1,
b11 +
b11 .
1)
b11 @
b0 ?
#60000
0)
#70000
1!
b10 ;
b11 :
0"
0,
1)
#71000
b10 C
b101 A
b11 B
#80000
0)
#90000
b1 -
1(
1'
b1 C
1)
#100000
0)
#110000
b10 -
b1 4
b1 3
0'
b0 C
1)
#120000
0)
#130000
b101 -
b10 4
b10 3
1'
b11111111111111111111111111111111 C
1)
#140000
0)
#150000
b1011 -
0!
b0 ;
b1 8
b101 #
b101 6
b101 7
1$
b11 4
b101 3
0(
b101 <
b11 >
1)
#160000
0)
#170000
1"
0$
1)
b10 @
#180000
0)
#190000
1,
b10 +
b10 .
1)
#200000
0)
#210000
b1 -
b0 3
b0 4
1!
b10 ;
b10 :
0"
0,
1)
#211000
b1 C
b1 A
b10 B
#220000
0)
#230000
b0 -
1(
0'
b0 C
1)
#240000
0)
#250000
b1 -
b1 4
1'
b11111111111111111111111111111111 C
1)
#260000
0)
#270000
b11 -
0!
b0 ;
b10 8
b111111111110 #
b111111111110 6
b1 %
b1 5
1$
b10 4
b1 3
0(
b11 =
b1 <
b10 >
1)
#280000
0)
#290000
1"
0$
1)
b1 @
b100 ?
#300000
0)
#310000
1,
b1000001 +
b1000001 .
1)
#320000
0)
#330000
b1 -
b0 3
b0 4
1!
b10 ;
b100 9
b1 :
0"
0,
1)
#331000
b0 C
b1 B
#340000
0)
#350000
1(
b11111111111111111111111111111111 C
1)
#360000
0)
#370000
b11 -
0!
b0 ;
b11 8
b1 #
b1 6
b10 %
b10 5
1$
b1 4
b1 3
0(
b1 >
1)
#380000
0)
#390000
1"
0$
1)
b0 @
b1111 ?
#400000
0)
#410000
1,
b11110000 +
b11110000 .
1)
#420000
0)
#430000
b1 ;
b10000 9
b0 :
0"
0,
1)
#440000
0)
#450000
b1111 9
b100 8
b11 %
b11 5
b0 #
b0 6
1$
1)
#460000
0)
#470000
b1110 9
b101 8
b100 %
b100 5
1$
1)
#480000
0)
#490000
b1101 9
b110 8
b101 %
b101 5
1$
1)
#500000
0)
#510000
b1100 9
b111 8
b110 %
b110 5
1$
1)
#520000
0)
#530000
b1011 9
b1000 8
b111 %
b111 5
1$
1)
#540000
0)
#550000
b1010 9
b1001 8
b1000 %
b1000 5
1$
1)
#560000
0)
#570000
b1001 9
b1010 8
b1001 %
b1001 5
1$
1)
#580000
0)
#590000
b1000 9
b1011 8
b1010 %
b1010 5
1$
1)
#600000
0)
#610000
b111 9
b1100 8
b1011 %
b1011 5
1$
1)
#620000
0)
#630000
b110 9
b1101 8
b1100 %
b1100 5
1$
1)
#640000
0)
#650000
b101 9
b1110 8
b1101 %
b1101 5
1$
1)
#660000
0)
#670000
b100 9
b1111 8
b1110 %
b1110 5
1$
1)
#680000
0)
#690000
b11 9
b10000 8
b1111 %
b1111 5
1$
1)
#700000
0)
#710000
b10 9
b10001 8
b10000 %
b10000 5
1$
1)
#720000
0)
#730000
b1 9
b10010 8
b10001 %
b10001 5
1$
1)
#740000
0)
#750000
b0 ;
b0 9
b10011 8
b10010 %
b10010 5
1$
1)
#760000
0)
#770000
b0 ?
1"
0$
1)
#780000
0)
#790000
1,
b0 +
b0 .
1)
#800000
0)
#810000
b11 ;
0"
0,
1)
#820000
0)
#830000
b10100 8
b10011 %
b10011 5
1$
1)
#840000
0)
#850000
b10101 8
b10100 %
b10100 5
1$
1)
#860000
0)
#870000
b10110 8
b10101 %
b10101 5
1$
1)
#880000
0)
#890000
b10111 8
b10110 %
b10110 5
1$
1)
#900000
0)
#910000
b11000 8
b10111 %
b10111 5
1$
1)
#920000
0)
#930000
b11001 8
b11000 %
b11000 5
1$
1)
#940000
0)
#950000
b11010 8
b11001 %
b11001 5
1$
1)
#960000
0)
#970000
b11011 8
b11010 %
b11010 5
1$
1)
#980000
0)
#990000
b11100 8
b11011 %
b11011 5
1$
1)
#1000000
0)
#1010000
b11101 8
b11100 %
b11100 5
1$
1)
#1020000
0)
#1030000
b11110 8
b11101 %
b11101 5
1$
1)
#1040000
0)
#1050000
b11111 8
b11110 %
b11110 5
1$
1)
#1060000
0)
#1070000
b100000 8
b11111 %
b11111 5
1$
1)
#1080000
0)
#1090000
b100001 8
b100000 %
b100000 5
1$
1)
#1100000
0)
#1110000
b100010 8
b100001 %
b100001 5
1$
1)
#1120000
0)
#1130000
b100011 8
b100010 %
b100010 5
1$
1)
#1140000
0)
#1150000
b100100 8
b100011 %
b100011 5
1$
1)
#1160000
0)
#1170000
b100101 8
b100100 %
b100100 5
1$
1)
#1180000
0)
#1190000
b100110 8
b100101 %
b100101 5
1$
1)
#1200000
0)
#1210000
b100111 8
b100110 %
b100110 5
1$
1)
#1220000
0)
#1230000
b101000 8
b100111 %
b100111 5
1$
1)
#1240000
0)
#1250000
b101001 8
b101000 %
b101000 5
1$
1)
#1260000
0)
#1270000
b101010 8
b101001 %
b101001 5
1$
1)
#1280000
0)
#1290000
b101011 8
b101010 %
b101010 5
1$
1)
#1300000
0)
#1310000
b101100 8
b101011 %
b101011 5
1$
1)
#1320000
0)
#1330000
b101101 8
b101100 %
b101100 5
1$
1)
#1340000
0)
#1350000
b101110 8
b101101 %
b101101 5
1$
1)
#1360000
0)
#1370000
b101111 8
b101110 %
b101110 5
1$
1)
#1380000
0)
#1390000
b110000 8
b101111 %
b101111 5
1$
1)
#1400000
0)
#1410000
b110001 8
b110000 %
b110000 5
1$
1)
#1420000
0)
#1430000
b110010 8
b110001 %
b110001 5
1$
1)
#1440000
0)
#1450000
b110011 8
b110010 %
b110010 5
1$
1)
#1460000
0)
#1470000
b110100 8
b110011 %
b110011 5
1$
1)
#1480000
0)
#1490000
b110101 8
b110100 %
b110100 5
1$
1)
#1500000
0)
#1510000
b110110 8
b110101 %
b110101 5
1$
1)
#1520000
0)
#1530000
b110111 8
b110110 %
b110110 5
1$
1)
#1540000
0)
#1550000
b111000 8
b110111 %
b110111 5
1$
1)
#1560000
0)
#1570000
b111001 8
b111000 %
b111000 5
1$
1)
#1580000
0)
#1590000
b111010 8
b111001 %
b111001 5
1$
1)
#1600000
0)
#1610000
b111011 8
b111010 %
b111010 5
1$
1)
#1620000
0)
#1630000
b111100 8
b111011 %
b111011 5
1$
1)
#1640000
0)
#1650000
b111101 8
b111100 %
b111100 5
1$
1)
#1660000
0)
#1670000
b111110 8
b111101 %
b111101 5
1$
1)
#1680000
0)
#1690000
b111111 8
b111110 %
b111110 5
1$
1)
#1700000
0)
#1710000
b0 ;
b0 8
1&
b111111 %
b111111 5
1$
1)
#1720000
0)
#1730000
1"
0&
0$
1)
